%YAML 1.1
%TAG !u! tag:unity3d.com,2011:
--- !u!1045 &1
EditorBuildSettings:
  m_ObjectHideFlags: 0
  serializedVersion: 2
  m_Scenes:
  - enabled: 1
    path: Assets/ScenesPatri/Menu.unity
    guid: 8ea78ea06e5e745c3998318bc8291e96
  - enabled: 1
    path: Assets/ScenesPatri/Alta.unity
    guid: 2cda990e2423bbf4892e6590ba056729
  - enabled: 1
    path: Assets/ScenesPatri/Baja.unity
    guid: d425742105f2f2a49b05ab3b72e212bc
  - enabled: 0
    path: 
    guid: 00000000000000000000000000000000
  - enabled: 1
    path: Assets/ScenesPatri/Dificultad.unity
    guid: 72e035eee00771b4da2e344e46d8b03a
  - enabled: 1
    path: Assets/ScenesPatri/GameOver.unity
    guid: 4c64a12aed5335e4080d56f9c1cff8ac
  - enabled: 1
    path: Assets/ScenesPatri/Credits.unity
    guid: 0a6ced688d3f4cd489b158c15dc9d54d
  m_configObjects: {}
